[gd_scene load_steps=3 format=2]

[ext_resource path="res://assets/sprites/player.png" type="Texture" id=1]

[sub_resource type="Animation" id=1]

resource_name = "melt"
length = 0.7
loop = false
step = 0.1
tracks/0/type = "value"
tracks/0/path = NodePath(".:frame")
tracks/0/interp = 1
tracks/0/loop_wrap = true
tracks/0/imported = false
tracks/0/enabled = true
tracks/0/keys = {
"times": PoolRealArray( 0, 0.1, 0.2, 0.3, 0.4, 0.5, 0.6 ),
"transitions": PoolRealArray( 1, 1, 1, 1, 1, 1, 1 ),
"update": 1,
"values": [ 18, 19, 20, 21, 22, 23, 24 ]
}

[node name="PlayerMelt" type="Sprite" index="0"]

z_index = 99
texture = ExtResource( 1 )
vframes = 4
hframes = 8
frame = 18
_sections_unfolded = [ "Animation", "Z Index" ]

[node name="Anim" type="AnimationPlayer" parent="." index="0"]

root_node = NodePath("..")
autoplay = "melt"
playback_process_mode = 1
playback_default_blend_time = 0.0
playback_speed = 0.5
anims/melt = SubResource( 1 )
blend_times = [  ]
_sections_unfolded = [ "Playback Options" ]

[node name="Camera2D" type="Camera2D" parent="." index="1"]

anchor_mode = 1
rotating = false
current = true
zoom = Vector2( 1, 1 )
limit_left = 0
limit_top = -10000000
limit_right = 512
limit_bottom = 10000000
limit_smoothed = false
drag_margin_h_enabled = false
drag_margin_v_enabled = false
smoothing_enabled = false
smoothing_speed = 5.0
offset_v = 0.0
offset_h = 0.0
drag_margin_left = 0.2
drag_margin_top = 0.2
drag_margin_right = 0.2
drag_margin_bottom = 0.2
editor_draw_screen = true
editor_draw_limits = false
editor_draw_drag_margin = false
_sections_unfolded = [ "Limit" ]


