[gd_resource type="SpriteFrames" load_steps=14 format=2]

[ext_resource path="res://assets/sprites/lava/lava 0000.png" type="Texture" id=1]
[ext_resource path="res://assets/sprites/lava/lava 0001.png" type="Texture" id=2]
[ext_resource path="res://assets/sprites/lava/lava 0002.png" type="Texture" id=3]
[ext_resource path="res://assets/sprites/lava/lava 0003.png" type="Texture" id=4]
[ext_resource path="res://assets/sprites/lava/lava 0004.png" type="Texture" id=5]
[ext_resource path="res://assets/sprites/lava/lava 0005.png" type="Texture" id=6]
[ext_resource path="res://assets/sprites/lava/lava 0006.png" type="Texture" id=7]
[ext_resource path="res://assets/sprites/lava/lava 0007.png" type="Texture" id=8]
[ext_resource path="res://assets/sprites/lava/lava 0008.png" type="Texture" id=9]
[ext_resource path="res://assets/sprites/lava/lava 0009.png" type="Texture" id=10]
[ext_resource path="res://assets/sprites/lava/lava 0010.png" type="Texture" id=11]
[ext_resource path="res://assets/sprites/lava/lava 0011.png" type="Texture" id=12]
[ext_resource path="res://assets/sprites/lava/lava 0012.png" type="Texture" id=13]


[resource]

animations = [ {
"frames": [ ExtResource( 1 ), ExtResource( 2 ), ExtResource( 3 ), ExtResource( 4 ), ExtResource( 5 ), ExtResource( 6 ), ExtResource( 7 ), ExtResource( 8 ), ExtResource( 9 ), ExtResource( 10 ), ExtResource( 11 ), ExtResource( 12 ), ExtResource( 13 ) ],
"loop": true,
"name": "default",
"speed": 15.0
} ]

