[gd_scene load_steps=7 format=2]

[ext_resource path="res://scenes/tilesets/tileset_inca_back.tres" type="TileSet" id=1]
[ext_resource path="res://scenes/tilesets/tileset_inca_front.tres" type="TileSet" id=2]
[ext_resource path="res://scenes/Spikes.tscn" type="PackedScene" id=3]
[ext_resource path="res://scenes/enemies/Snake.tscn" type="PackedScene" id=4]
[ext_resource path="res://scenes/pickups/Pickup_Gem_Red.tscn" type="PackedScene" id=5]
[ext_resource path="res://scenes/pickups/Pickup_Potion_Red.tscn" type="PackedScene" id=6]

[node name="Level1" type="Node2D" index="0"]

[node name="Background" type="TileMap" parent="." index="0"]

mode = 0
tile_set = ExtResource( 1 )
cell_size = Vector2( 32, 32 )
cell_quadrant_size = 16
cell_custom_transform = Transform2D( 1, 0, 0, 1, 0, 0 )
cell_half_offset = 2
cell_tile_origin = 0
cell_y_sort = false
cell_clip_uv = false
collision_use_kinematic = false
collision_friction = 1.0
collision_bounce = 0.0
collision_layer = 1
collision_mask = 1
occluder_light_mask = 1
format = 1
tile_data = PoolIntArray( 262152, 10, 0, 524289, 9, 0, 655365, 13, 0, 786441, 9, 0, 786446, 11, 0 )
_sections_unfolded = [ "Cell" ]

[node name="Map" type="TileMap" parent="." index="1"]

mode = 0
tile_set = ExtResource( 2 )
cell_size = Vector2( 32, 32 )
cell_quadrant_size = 16
cell_custom_transform = Transform2D( 1, 0, 0, 1, 0, 0 )
cell_half_offset = 2
cell_tile_origin = 0
cell_y_sort = false
cell_clip_uv = false
collision_use_kinematic = false
collision_friction = 1.0
collision_bounce = 0.0
collision_layer = 1
collision_mask = 1
occluder_light_mask = 1
format = 1
tile_data = PoolIntArray( 0, 4, 0, 1, 7, 0, 2, 7, 0, 3, 7, 0, 15, 4, 0, 65536, 4, 0, 65551, 4, 0, 131072, 4, 0, 131087, 4, 0, 196608, 4, 0, 196623, 4, 0, 262144, 4, 0, 262153, 3, 0, 262159, 4, 0, 327680, 4, 0, 327684, 4, 0, 327685, 4, 0, 327686, 4, 0, 327687, 4, 0, 327688, 4, 0, 327689, 4, 0, 327690, 4, 0, 327691, 4, 0, 327695, 4, 0, 393216, 4, 0, 393231, 4, 0, 458752, 4, 0, 458767, 4, 0, 524288, 4, 0, 524303, 4, 0, 589824, 4, 0, 589825, 3, 0, 589828, 7, 0, 589829, 7, 0, 589830, 7, 0, 589833, 3, 0, 589839, 4, 0, 655360, 4, 0, 655375, 4, 0, 720896, 4, 0, 720908, 7, 0, 720909, 7, 0, 720910, 7, 0, 720911, 4, 0, 786432, 4, 0, 786447, 4, 0, 851968, 4, 0, 851969, 3, 0, 851977, 3, 0, 851983, 4, 0, 917504, 4, 0, 917513, 3, 0, 917519, 4, 0, 983040, 4, 0, 983049, 3, 0, 983055, 4, 0 )
_sections_unfolded = [ "Cell" ]
__meta__ = {
"_edit_lock_": true
}

[node name="Spikes" parent="." index="2" instance=ExtResource( 3 )]

position = Vector2( 31.7658, 319.916 )

[node name="Spikes2" parent="." index="3" instance=ExtResource( 3 )]

position = Vector2( 31.7658, 351.916 )

[node name="Spikes3" parent="." index="4" instance=ExtResource( 3 )]

position = Vector2( 31.7658, 383.916 )

[node name="Snake" parent="." index="5" instance=ExtResource( 4 )]

position = Vector2( 245.081, 146.399 )

[node name="Gem Red" parent="." index="6" instance=ExtResource( 5 )]

position = Vector2( 163, 143 )
point_value = 50

[node name="Potion Red" parent="." index="7" instance=ExtResource( 6 )]

position = Vector2( 213, 144 )
point_value = 50


