[gd_scene load_steps=6 format=2]

[ext_resource path="res://scenes/tilesets/tileset_inca_back.tres" type="TileSet" id=1]
[ext_resource path="res://scenes/tilesets/tileset_inca_front.tres" type="TileSet" id=2]
[ext_resource path="res://scenes/Spikes.tscn" type="PackedScene" id=3]
[ext_resource path="res://scenes/enemies/Snake.tscn" type="PackedScene" id=4]
[ext_resource path="res://scenes/pickups/Pickup_Gem_Gold.tscn" type="PackedScene" id=5]

[node name="Level1" type="Node2D" index="0"]

[node name="Background" type="TileMap" parent="." index="0"]

mode = 0
tile_set = ExtResource( 1 )
cell_size = Vector2( 32, 32 )
cell_quadrant_size = 16
cell_custom_transform = Transform2D( 1, 0, 0, 1, 0, 0 )
cell_half_offset = 2
cell_tile_origin = 0
cell_y_sort = false
cell_clip_uv = false
collision_use_kinematic = false
collision_friction = 1.0
collision_bounce = 0.0
collision_layer = 1
collision_mask = 1
occluder_light_mask = 1
format = 1
tile_data = PoolIntArray( 65538, 1, 0, 65549, 1, 0, 524293, 9, 0, 524294, 9, 0, 524295, 9, 0, 524296, 9, 0, 524297, 9, 0, 524298, 9, 0, 786439, 9, 0, 786440, 9, 0 )
_sections_unfolded = [ "Cell" ]

[node name="Map" type="TileMap" parent="." index="1"]

mode = 0
tile_set = ExtResource( 2 )
cell_size = Vector2( 32, 32 )
cell_quadrant_size = 16
cell_custom_transform = Transform2D( 1, 0, 0, 1, 0, 0 )
cell_half_offset = 2
cell_tile_origin = 0
cell_y_sort = false
cell_clip_uv = false
collision_use_kinematic = false
collision_friction = 1.0
collision_bounce = 0.0
collision_layer = 1
collision_mask = 1
occluder_light_mask = 1
format = 1
tile_data = PoolIntArray( 0, 4, 0, 1, 9, 0, 2, 9, 0, 13, 9, 0, 14, 9, 0, 15, 4, 0, 65536, 4, 0, 65537, 9, 0, 65550, 9, 0, 65551, 4, 0, 131072, 4, 0, 131087, 4, 0, 196608, 4, 0, 196615, 9, 0, 196616, 9, 0, 196623, 4, 0, 262144, 4, 0, 262159, 4, 0, 327680, 4, 0, 327695, 4, 0, 393216, 4, 0, 393231, 4, 0, 458752, 4, 0, 458757, 9, 0, 458758, 9, 0, 458759, 9, 0, 458760, 9, 0, 458761, 9, 0, 458762, 9, 0, 458767, 4, 0, 524288, 4, 0, 524303, 4, 0, 589824, 4, 0, 589839, 4, 0, 655360, 4, 0, 655375, 4, 0, 720896, 4, 0, 720903, 9, 0, 720904, 9, 0, 720911, 4, 0, 786432, 4, 0, 786447, 4, 0, 851968, 4, 0, 851983, 4, 0, 917504, 4, 0, 917519, 4, 0, 983040, 4, 0, 983045, 9, 0, 983046, 9, 0, 983047, 9, 0, 983048, 9, 0, 983049, 9, 0, 983050, 9, 0, 983055, 4, 0 )
_sections_unfolded = [ "Cell" ]
__meta__ = {
"_edit_lock_": true
}

[node name="Spikes" parent="." index="2" instance=ExtResource( 3 )]

position = Vector2( 193.148, 255.895 )
rotation = 1.5708
_sections_unfolded = [ "Transform" ]

[node name="Spikes2" parent="." index="3" instance=ExtResource( 3 )]

position = Vector2( 350.972, 255.971 )
rotation = 1.5708
_sections_unfolded = [ "Transform" ]

[node name="Spikes3" parent="." index="4" instance=ExtResource( 3 )]

position = Vector2( 287.791, 384.058 )
rotation = 1.5708
_sections_unfolded = [ "Transform" ]

[node name="Spikes4" parent="." index="5" instance=ExtResource( 3 )]

position = Vector2( 255.431, 384.053 )
rotation = 1.5708
_sections_unfolded = [ "Transform" ]

[node name="Snake" parent="." index="6" instance=ExtResource( 4 )]

position = Vector2( 262, 212 )

[node name="Snake2" parent="." index="7" instance=ExtResource( 4 )]

position = Vector2( 331, 468 )

[node name="Gem Gold" parent="." index="8" instance=ExtResource( 5 )]

position = Vector2( 256, 84 )


