[gd_scene load_steps=6 format=2]

[ext_resource path="res://scenes/tilesets/tileset_inca_back.tres" type="TileSet" id=1]
[ext_resource path="res://scenes/tilesets/tileset_inca_front.tres" type="TileSet" id=2]
[ext_resource path="res://scenes/enemies/Snake.tscn" type="PackedScene" id=3]
[ext_resource path="res://scenes/pickups/Pickup_Potion_Red.tscn" type="PackedScene" id=4]
[ext_resource path="res://scenes/pickups/Pickup_Gem_Silver.tscn" type="PackedScene" id=5]

[node name="Level1" type="Node2D"]

[node name="Background" type="TileMap" parent="." index="0"]

mode = 0
tile_set = ExtResource( 1 )
cell_size = Vector2( 32, 32 )
cell_quadrant_size = 16
cell_custom_transform = Transform2D( 1, 0, 0, 1, 0, 0 )
cell_half_offset = 2
cell_tile_origin = 0
cell_y_sort = false
cell_clip_uv = false
collision_use_kinematic = false
collision_friction = 1.0
collision_bounce = 0.0
collision_layer = 1
collision_mask = 1
occluder_light_mask = 1
format = 1
tile_data = PoolIntArray( 65550, 15, 0, 131086, 14, 0, 196622, 16, 0, 458753, 9, 0, 917508, 9, 0, 917510, 14, 0, 917518, 1, 0 )
_sections_unfolded = [ "Cell" ]

[node name="Map" type="TileMap" parent="." index="1"]

mode = 0
tile_set = ExtResource( 2 )
cell_size = Vector2( 32, 32 )
cell_quadrant_size = 16
cell_custom_transform = Transform2D( 1, 0, 0, 1, 0, 0 )
cell_half_offset = 2
cell_tile_origin = 0
cell_y_sort = false
cell_clip_uv = false
collision_use_kinematic = false
collision_friction = 1.0
collision_bounce = 0.0
collision_layer = 1
collision_mask = 1
occluder_light_mask = 1
format = 1
tile_data = PoolIntArray( 0, 4, 0, 1, 8, 0, 2, 8, 0, 3, 8, 0, 4, 8, 0, 5, 8, 0, 6, 8, 0, 13, 8, 0, 14, 8, 0, 15, 4, 0, 65536, 4, 0, 65551, 4, 0, 131072, 4, 0, 131087, 4, 0, 196608, 4, 0, 196623, 4, 0, 262144, 4, 0, 262156, 8, 0, 262157, 8, 0, 262158, 8, 0, 262159, 4, 0, 327680, 4, 0, 327691, 8, 0, 327692, 8, 0, 327693, 8, 0, 327694, 8, 0, 327695, 4, 0, 393216, 4, 0, 393226, 8, 0, 393227, 8, 0, 393228, 8, 0, 393229, 8, 0, 393230, 8, 0, 393231, 4, 0, 458752, 4, 0, 458761, 8, 0, 458762, 8, 0, 458763, 8, 0, 458764, 8, 0, 458765, 8, 0, 458766, 8, 0, 458767, 4, 0, 524288, 4, 0, 524289, 8, 0, 524290, 8, 0, 524291, 8, 0, 524296, 8, 0, 524297, 8, 0, 524298, 8, 0, 524299, 8, 0, 524300, 8, 0, 524301, 8, 0, 524302, 8, 0, 524303, 4, 0, 589824, 4, 0, 589839, 4, 0, 655360, 4, 0, 655375, 4, 0, 720896, 4, 0, 720911, 4, 0, 786432, 4, 0, 786437, 8, 0, 786447, 4, 0, 851968, 4, 0, 851973, 8, 0, 851983, 4, 0, 917504, 4, 0, 917509, 8, 0, 917519, 4, 0, 983040, 4, 0, 983044, 8, 0, 983045, 8, 0, 983046, 8, 0, 983047, 8, 0, 983048, 8, 0, 983054, 8, 0, 983055, 4, 0 )
_sections_unfolded = [ "Cell" ]
__meta__ = {
"_edit_lock_": true
}

[node name="Snake" parent="." index="2" instance=ExtResource( 3 )]

position = Vector2( 425.374, 112.767 )

[node name="Potion Red" parent="." index="3" instance=ExtResource( 4 )]

position = Vector2( 464.689, 46.2075 )
point_value = 50

[node name="Gem Silver" parent="." index="4" instance=ExtResource( 5 )]

position = Vector2( 175.68, 371.049 )


