[gd_scene load_steps=6 format=2]

[ext_resource path="res://scripts/Enemy_Flying.gd" type="Script" id=1]
[ext_resource path="res://assets/sprites/bat.png" type="Texture" id=2]

[sub_resource type="CircleShape2D" id=5]

custom_solver_bias = 0.0
radius = 9.0

[sub_resource type="Animation" id=4]

resource_name = "flying"
length = 0.5
loop = true
step = 0.1
tracks/0/type = "value"
tracks/0/path = NodePath("Sprite:frame")
tracks/0/interp = 1
tracks/0/loop_wrap = true
tracks/0/imported = false
tracks/0/enabled = true
tracks/0/keys = {
"times": PoolRealArray( 0, 0.5 ),
"transitions": PoolRealArray( 1, 1 ),
"update": 0,
"values": [ 0, 4 ]
}

[sub_resource type="CircleShape2D" id=6]

custom_solver_bias = 0.0
radius = 10.1561

[node name="Bat" type="KinematicBody2D" index="0"]

input_pickable = false
collision_layer = 1
collision_mask = 1
collision/safe_margin = 0.08
script = ExtResource( 1 )
_sections_unfolded = [ "Transform" ]
__meta__ = {
"_edit_lock_": true
}
SPEED = 70
direction = -1

[node name="CollisionShape2D" type="CollisionShape2D" parent="." index="0"]

position = Vector2( 0, -2.62893 )
rotation = 1.5708
shape = SubResource( 5 )
_sections_unfolded = [ "Transform" ]

[node name="Sprite" type="Sprite" parent="." index="1"]

position = Vector2( 0.927856, -0.115982 )
texture = ExtResource( 2 )
vframes = 2
hframes = 6
_sections_unfolded = [ "Animation", "Material", "Offset", "Visibility" ]
__meta__ = {
"_edit_lock_": true
}

[node name="Animation" type="AnimationPlayer" parent="." index="2"]

root_node = NodePath("..")
autoplay = "flying"
playback_process_mode = 1
playback_default_blend_time = 0.0
playback_speed = 1.0
anims/flying = SubResource( 4 )
blend_times = [  ]
_sections_unfolded = [ "Playback Options" ]

[node name="Bat_hitbox" type="Area2D" parent="." index="3" groups=[
"enemies",
]]

input_pickable = true
gravity_vec = Vector2( 0, 1 )
gravity = 98.0
linear_damp = 0.1
angular_damp = 1.0
audio_bus_override = false
audio_bus_name = "Master"
__meta__ = {
"_edit_lock_": true
}

[node name="CollisionShape2D2" type="CollisionShape2D" parent="Bat_hitbox" index="0"]

position = Vector2( 0.10009, -2.15559 )
rotation = 1.5708
shape = SubResource( 6 )
_sections_unfolded = [ "Transform" ]


