[gd_scene load_steps=8 format=2]

[ext_resource path="res://scripts/Snake.gd" type="Script" id=1]
[ext_resource path="res://assets/sprites/snake_spritesheet.png" type="Texture" id=2]

[sub_resource type="CapsuleShape2D" id=1]

custom_solver_bias = 0.0
radius = 7.26969
height = 3.8968

[sub_resource type="Animation" id=2]

resource_name = "atack"
length = 1.0
loop = false
step = 0.1
tracks/0/type = "value"
tracks/0/path = NodePath("Sprite:frame")
tracks/0/interp = 1
tracks/0/loop_wrap = true
tracks/0/imported = false
tracks/0/enabled = true
tracks/0/keys = {
"times": PoolRealArray( 0 ),
"transitions": PoolRealArray( 1 ),
"update": 1,
"values": [ 4 ]
}

[sub_resource type="Animation" id=3]

resource_name = "die"
length = 0.6
loop = false
step = 0.1
tracks/0/type = "value"
tracks/0/path = NodePath("Sprite:frame")
tracks/0/interp = 1
tracks/0/loop_wrap = true
tracks/0/imported = false
tracks/0/enabled = true
tracks/0/keys = {
"times": PoolRealArray( 0, 0.4 ),
"transitions": PoolRealArray( 1, 1 ),
"update": 1,
"values": [ 5, 6 ]
}

[sub_resource type="Animation" id=4]

resource_name = "walk"
length = 0.8
loop = true
step = 0.2
tracks/0/type = "value"
tracks/0/path = NodePath("Sprite:frame")
tracks/0/interp = 1
tracks/0/loop_wrap = true
tracks/0/imported = false
tracks/0/enabled = true
tracks/0/keys = {
"times": PoolRealArray( 0, 0.2, 0.4, 0.6 ),
"transitions": PoolRealArray( 1, 1, 1, 1 ),
"update": 1,
"values": [ 0, 1, 2, 1 ]
}

[sub_resource type="CapsuleShape2D" id=5]

custom_solver_bias = 0.0
radius = 11.0272
height = 0.435768

[node name="Snake" type="KinematicBody2D"]

input_pickable = false
collision_layer = 1
collision_mask = 1
collision/safe_margin = 0.08
script = ExtResource( 1 )

[node name="collision_shape" type="CollisionShape2D" parent="." index="0"]

shape = SubResource( 1 )

[node name="Sprite" type="Sprite" parent="." index="1"]

position = Vector2( 0.927856, -0.115982 )
texture = ExtResource( 2 )
hframes = 7
frame = 1
region_rect = Rect2( 5, -11, 50, 21 )
_sections_unfolded = [ "Animation", "Region" ]

[node name="Animation" type="AnimationPlayer" parent="." index="2"]

root_node = NodePath("..")
autoplay = ""
playback_process_mode = 1
playback_default_blend_time = 0.0
playback_speed = 1.0
anims/atack = SubResource( 2 )
anims/die = SubResource( 3 )
anims/walk = SubResource( 4 )
blend_times = [  ]

[node name="detect_floor_left" type="RayCast2D" parent="." index="3"]

position = Vector2( -11.056, 1.31221 )
enabled = true
exclude_parent = true
cast_to = Vector2( 0, 10 )
collision_mask = 1

[node name="detect_floor_right" type="RayCast2D" parent="." index="4"]

position = Vector2( 10.1488, 1.6122 )
enabled = true
exclude_parent = true
cast_to = Vector2( 0, 10 )
collision_mask = 1

[node name="detect_wall_left" type="RayCast2D" parent="." index="5"]

position = Vector2( -6.04912, -0.861189 )
enabled = true
exclude_parent = true
cast_to = Vector2( -7, 0 )
collision_mask = 1

[node name="detect_wall_right" type="RayCast2D" parent="." index="6"]

position = Vector2( 5.78981, -0.540047 )
enabled = true
exclude_parent = true
cast_to = Vector2( 7, 0 )
collision_mask = 1

[node name="Snake_hitbox" type="Area2D" parent="." index="7" groups=[
"enemies",
]]

input_pickable = true
gravity_vec = Vector2( 0, 1 )
gravity = 98.0
linear_damp = 0.1
angular_damp = 1.0
collision_layer = 0
audio_bus_override = false
audio_bus_name = "Master"
_sections_unfolded = [ "Collision" ]

[node name="CollisionShape2D" type="CollisionShape2D" parent="Snake_hitbox" index="0"]

position = Vector2( 0.128517, 0.514049 )
shape = SubResource( 5 )


