[gd_scene load_steps=4 format=2]

[ext_resource path="res://scripts/Enemy_Flying.gd" type="Script" id=1]
[ext_resource path="res://assets/sprites/wasp/Wasp.tres" type="SpriteFrames" id=2]

[sub_resource type="CircleShape2D" id=1]

custom_solver_bias = 0.0
radius = 18.5443

[node name="Wasp" type="KinematicBody2D" index="0"]

input_pickable = false
collision_layer = 1
collision_mask = 1
collision/safe_margin = 0.08
script = ExtResource( 1 )
SPEED = 70
direction = 1

[node name="CollisionShape2D" type="CollisionShape2D" parent="." index="0"]

position = Vector2( 0, 5.94566 )
shape = SubResource( 1 )
_sections_unfolded = [ "Transform" ]

[node name="Sprite" type="AnimatedSprite" parent="." index="1"]

position = Vector2( 0.927856, -0.115982 )
frames = ExtResource( 2 )
animation = "idle"
frame = 6
playing = true
__meta__ = {
"_edit_lock_": true
}

[node name="Wasp_hitbox" type="Area2D" parent="." index="2" groups=[
"enemies",
]]

input_pickable = true
gravity_vec = Vector2( 0, 1 )
gravity = 98.0
linear_damp = 0.1
angular_damp = 1.0
audio_bus_override = false
audio_bus_name = "Master"
__meta__ = {
"_edit_lock_": true
}

[node name="CollisionPolygon2D" type="CollisionPolygon2D" parent="Wasp_hitbox" index="0"]

build_mode = 0
polygon = PoolVector2Array( 23.3377, 42.8859, 36.2432, 30.6974, 29.0735, -9.09451, -34.3786, 21.0183, -20.3976, 38.9426, -1.75633, 21.7353 )
__meta__ = {
"_edit_lock_": true
}


